0,0.1647633908,0.3346229737,-2.0046593572,-0.1882215053,0.3363365423,-1.8258428677,0.1292720092,0.3108966136,-1.646971033,0.1292720092,0.3108966136,-1.646971033,-0.1882215053,0.3363365423,-1.8258428677,0.1647633908,0.3346229737,-2.0046593572
0.1,0.1629216849,0.3688777567,-2.0256978186,-0.18555495,0.3363965765,-1.8266038175,0.1281316755,0.3415347146,-1.6695239322,0.1276176027,0.3115563811,-1.6503467673,-0.1863827892,0.3683210423,-1.8472473621,0.1620942267,0.3348358242,-2.0028220039
0.2,0.1574206457,0.4567664873,-2.0741489831,-0.1779084337,0.3365610405,-1.8287202911,0.1246936674,0.419000193,-1.7233551991,0.1228495803,0.3133985838,-1.6599402242,-0.1808590299,0.4495844238,-1.8974861564,0.1545015203,0.3354245009,-1.9975026122
0.3,0.1483324518,0.5756180222,-2.1274400268,-0.1657972559,0.3367993221,-1.8318755372,0.1189065104,0.5217920761,-1.7877691156,0.1152235642,0.3161683445,-1.6748779308,-0.1716280684,0.5580443858,-1.9553891034,0.1426583065,0.3362892181,-1.9889238579
0.4,0.1357771281,0.699454988,-2.167581442,-0.1497281235,0.3370766106,-1.8356949365,0.1106828955,0.6283941575,-1.8474653407,0.1049606475,0.3195711244,-1.6942272266,-0.1586552622,0.6703438069,-2.0047459354,0.1272808533,0.3373029937,-1.9772516002
0.5,0.1199218533,0.7986954582,-2.185456583,-0.130211443,0.3373596405,-1.8397816661,0.0998973858,0.7171842831,-1.8954182773,0.0922642294,0.323301904,-1.7170382538,-0.1418970546,0.7617434462,-2.037707097,0.1091004998,0.3383188802,-1.9626303807
0.6,0.0996204663,0.8780433334,-2.186390229,-0.1077712867,0.3376206406,-1.843747595,0.0853858366,0.795337591,-1.9395068193,0.0773352575,0.3270697039,-1.7423783408,-0.1198044536,0.8384612657,-2.0607454546,0.0888387184,0.3391784927,-1.9452139389
0.7,0.0752580345,0.9530419592,-2.17561715,-0.0829520663,0.337839174,-1.8472394273,0.0668314937,0.8778088804,-1.9843179652,0.0603864432,0.3306170886,-1.7693585918,-0.0923083506,0.9158442991,-2.0785422015,0.067185891,0.3397227578,-1.925190646
0.8,0.0491890393,1.0116058824,-2.1538095408,-0.0563213246,0.3380020608,-1.849960112,0.0454407448,0.9544123242,-2.0257475981,0.0416556883,0.3337346485,-1.7971533768,-0.0616361148,0.9829326359,-2.089113663,0.0447844695,0.3398046683,-1.9028038678
0.9,0.0235047397,1.0449286325,-2.1249234898,-0.0284684972,0.3381019831,-1.8516855233,0.0226129168,1.0145849416,-2.0623883075,0.0214186417,0.336270594,-1.8250138231,-0.030086157,1.0296933064,-2.0934950169,0.0222171032,0.3393030076,-1.8783674182
1,0,1.0471975512,-2.0943951024,-1.65211759616839E-17,0.3381355965,-1.8522764,0,1.0471975512,-2.0943951024,0,0.3381355965,-1.8522764,0,1.0471975512,-2.0943951024,0,0.3381355965,-1.8522764
1.1,-0.0226129168,1.0145849416,-2.0623883075,0.0284684972,0.3381019831,-1.8516855233,-0.0235047397,1.0449286325,-2.1249234898,-0.0222171032,0.3393030076,-1.8783674182,0.030086157,1.0296933064,-2.0934950169,-0.0214186417,0.336270594,-1.8250138231
1.2,-0.0454407448,0.9544123242,-2.0257475981,0.0563213246,0.3380020608,-1.849960112,-0.0491890393,1.0116058824,-2.1538095408,-0.0447844695,0.3398046683,-1.9028038678,0.0616361148,0.9829326359,-2.089113663,-0.0416556883,0.3337346485,-1.7971533768
1.3,-0.0668314937,0.8778088804,-1.9843179652,0.0829520663,0.337839174,-1.8472394273,-0.0752580345,0.9530419592,-2.17561715,-0.067185891,0.3397227578,-1.925190646,0.0923083506,0.9158442991,-2.0785422015,-0.0603864432,0.3306170886,-1.7693585918
1.4,-0.0853858366,0.795337591,-1.9395068193,0.1077712867,0.3376206406,-1.843747595,-0.0996204663,0.8780433334,-2.186390229,-0.0888387184,0.3391784927,-1.9452139389,0.1198044536,0.8384612657,-2.0607454546,-0.0773352575,0.3270697039,-1.7423783408
1.5,-0.0998973858,0.7171842831,-1.8954182773,0.130211443,0.3373596405,-1.8397816661,-0.1199218533,0.7986954582,-2.185456583,-0.1091004998,0.3383188802,-1.9626303807,0.1418970546,0.7617434462,-2.037707097,-0.0922642294,0.323301904,-1.7170382538
1.6,-0.1106828955,0.6283941575,-1.8474653407,0.1497281235,0.3370766106,-1.8356949365,-0.1357771281,0.699454988,-2.167581442,-0.1272808533,0.3373029937,-1.9772516002,0.1586552622,0.6703438069,-2.0047459354,-0.1049606475,0.3195711244,-1.6942272266
1.7,-0.1189065104,0.5217920761,-1.7877691156,0.1657972559,0.3367993221,-1.8318755372,-0.1483324518,0.5756180222,-2.1274400268,-0.1426583065,0.3362892181,-1.9889238579,0.1716280684,0.5580443858,-1.9553891034,-0.1152235642,0.3161683445,-1.6748779308
1.8,-0.1246936674,0.419000193,-1.7233551991,0.1779084337,0.3365610405,-1.8287202911,-0.1574206457,0.4567664873,-2.0741489831,-0.1545015203,0.3354245009,-1.9975026122,0.1808590299,0.4495844238,-1.8974861564,-0.1228495803,0.3133985838,-1.6599402242
1.9,-0.1281316755,0.3415347146,-1.6695239322,0.18555495,0.3363965765,-1.8266038175,-0.1629216849,0.3688777567,-2.0256978186,-0.1620942267,0.3348358242,-2.0028220039,0.1863827892,0.3683210423,-1.8472473621,-0.1276176027,0.3115563811,-1.6503467673
2,-0.1292720092,0.3108966136,-1.646971033,0.1882215053,0.3363365423,-1.8258428677,-0.1647633908,0.3346229737,-2.0046593572,-0.1647633908,0.3346229737,-2.0046593572,0.1882215053,0.3363365423,-1.8258428677,-0.1292720092,0.3108966136,-1.646971033
2.1,-0.1276176027,0.3115563811,-1.6503467673,0.1863827892,0.3683210423,-1.8472473621,-0.1620942267,0.3348358242,-2.0028220039,-0.1629216849,0.3688777567,-2.0256978186,0.18555495,0.3363965765,-1.8266038175,-0.1281316755,0.3415347146,-1.6695239322
2.2,-0.1228495803,0.3133985838,-1.6599402242,0.1808590299,0.4495844238,-1.8974861564,-0.1545015203,0.3354245009,-1.9975026122,-0.1574206457,0.4567664873,-2.0741489831,0.1779084337,0.3365610405,-1.8287202911,-0.1246936674,0.419000193,-1.7233551991
2.3,-0.1152235642,0.3161683445,-1.6748779308,0.1716280684,0.5580443858,-1.9553891034,-0.1426583065,0.3362892181,-1.9889238579,-0.1483324518,0.5756180222,-2.1274400268,0.1657972559,0.3367993221,-1.8318755372,-0.1189065104,0.5217920761,-1.7877691156
2.4,-0.1049606475,0.3195711244,-1.6942272266,0.1586552622,0.6703438069,-2.0047459354,-0.1272808533,0.3373029937,-1.9772516002,-0.1357771281,0.699454988,-2.167581442,0.1497281235,0.3370766106,-1.8356949365,-0.1106828955,0.6283941575,-1.8474653407
2.5,-0.0922642294,0.323301904,-1.7170382538,0.1418970546,0.7617434462,-2.037707097,-0.1091004998,0.3383188802,-1.9626303807,-0.1199218533,0.7986954582,-2.185456583,0.130211443,0.3373596405,-1.8397816661,-0.0998973858,0.7171842831,-1.8954182773
2.6,-0.0773352575,0.3270697039,-1.7423783408,0.1198044536,0.8384612657,-2.0607454546,-0.0888387184,0.3391784927,-1.9452139389,-0.0996204663,0.8780433334,-2.186390229,0.1077712867,0.3376206406,-1.843747595,-0.0853858366,0.795337591,-1.9395068193
2.7,-0.0603864432,0.3306170886,-1.7693585918,0.0923083506,0.9158442991,-2.0785422015,-0.067185891,0.3397227578,-1.925190646,-0.0752580345,0.9530419592,-2.17561715,0.0829520663,0.337839174,-1.8472394273,-0.0668314937,0.8778088804,-1.9843179652
2.8,-0.0416556883,0.3337346485,-1.7971533768,0.0616361148,0.9829326359,-2.089113663,-0.0447844695,0.3398046683,-1.9028038678,-0.0491890393,1.0116058824,-2.1538095408,0.0563213246,0.3380020608,-1.849960112,-0.0454407448,0.9544123242,-2.0257475981
2.9,-0.0214186417,0.336270594,-1.8250138231,0.030086157,1.0296933064,-2.0934950169,-0.0222171032,0.3393030076,-1.8783674182,-0.0235047397,1.0449286325,-2.1249234898,0.0284684972,0.3381019831,-1.8516855233,-0.0226129168,1.0145849416,-2.0623883075
3,0,0.3381355965,-1.8522764,0,1.0471975512,-2.0943951024,0,0.3381355965,-1.8522764,0,1.0471975512,-2.0943951024,1.65211759616839E-17,0.3381355965,-1.8522764,0,1.0471975512,-2.0943951024
3.1,0.0222171032,0.3393030076,-1.8783674182,-0.030086157,1.0296933064,-2.0934950169,0.0214186417,0.336270594,-1.8250138231,0.0226129168,1.0145849416,-2.0623883075,-0.0284684972,0.3381019831,-1.8516855233,0.0235047397,1.0449286325,-2.1249234898
3.2,0.0447844695,0.3398046683,-1.9028038678,-0.0616361148,0.9829326359,-2.089113663,0.0416556883,0.3337346485,-1.7971533768,0.0454407448,0.9544123242,-2.0257475981,-0.0563213246,0.3380020608,-1.849960112,0.0491890393,1.0116058824,-2.1538095408
3.3,0.067185891,0.3397227578,-1.925190646,-0.0923083506,0.9158442991,-2.0785422015,0.0603864432,0.3306170886,-1.7693585918,0.0668314937,0.8778088804,-1.9843179652,-0.0829520663,0.337839174,-1.8472394273,0.0752580345,0.9530419592,-2.17561715
3.4,0.0888387184,0.3391784927,-1.9452139389,-0.1198044536,0.8384612657,-2.0607454546,0.0773352575,0.3270697039,-1.7423783408,0.0853858366,0.795337591,-1.9395068193,-0.1077712867,0.3376206406,-1.843747595,0.0996204663,0.8780433334,-2.186390229
3.5,0.1091004998,0.3383188802,-1.9626303807,-0.1418970546,0.7617434462,-2.037707097,0.0922642294,0.323301904,-1.7170382538,0.0998973858,0.7171842831,-1.8954182773,-0.130211443,0.3373596405,-1.8397816661,0.1199218533,0.7986954582,-2.185456583
3.6,0.1272808533,0.3373029937,-1.9772516002,-0.1586552622,0.6703438069,-2.0047459354,0.1049606475,0.3195711244,-1.6942272266,0.1106828955,0.6283941575,-1.8474653407,-0.1497281235,0.3370766106,-1.8356949365,0.1357771281,0.699454988,-2.167581442
3.7,0.1426583065,0.3362892181,-1.9889238579,-0.1716280684,0.5580443858,-1.9553891034,0.1152235642,0.3161683445,-1.6748779308,0.1189065104,0.5217920761,-1.7877691156,-0.1657972559,0.3367993221,-1.8318755372,0.1483324518,0.5756180222,-2.1274400268
3.8,0.1545015203,0.3354245009,-1.9975026122,-0.1808590299,0.4495844238,-1.8974861564,0.1228495803,0.3133985838,-1.6599402242,0.1246936674,0.419000193,-1.7233551991,-0.1779084337,0.3365610405,-1.8287202911,0.1574206457,0.4567664873,-2.0741489831
3.9,0.1620942267,0.3348358242,-2.0028220039,-0.1863827892,0.3683210423,-1.8472473621,0.1276176027,0.3115563811,-1.6503467673,0.1281316755,0.3415347146,-1.6695239322,-0.18555495,0.3363965765,-1.8266038175,0.1629216849,0.3688777567,-2.0256978186
4,0.1647633908,0.3346229737,-2.0046593572,-0.1882215053,0.3363365423,-1.8258428677,0.1292720092,0.3108966136,-1.646971033,0.1292720092,0.3108966136,-1.646971033,-0.1882215053,0.3363365423,-1.8258428677,0.1647633908,0.3346229737,-2.0046593572
4.1,0.1647633908,0.3346229737,-2.0046593572,-0.1882215053,0.3363365423,-1.8258428677,0.1292720092,0.3108966136,-1.646971033,0.1292720092,0.3108966136,-1.646971033,-0.1882215053,0.3363365423,-1.8258428677,0.1647633908,0.3346229737,-2.0046593572
4.2,0.1629216849,0.3629685965,-2.0219110641,-0.18555495,0.3363965765,-1.8266038175,0.1281316755,0.3415347146,-1.6695239322,0.1276176027,0.3115563811,-1.6503467673,-0.1863827892,0.3683210423,-1.8472473621,0.1620942267,0.3348358242,-2.0028220039
4.3,0.1574206457,0.4385754681,-2.0638422338,-0.1779084337,0.3365610405,-1.8287202911,0.1246936674,0.419000193,-1.7233551991,0.1228495803,0.3133985838,-1.6599402242,-0.1808590299,0.4495844238,-1.8974861564,0.1545015203,0.3354245009,-1.9975026122
4.4,0.1483324518,0.5474661698,-2.1142794468,-0.1657972559,0.3367993221,-1.8318755372,0.1189065104,0.5217920761,-1.7877691156,0.1152235642,0.3161683445,-1.6748779308,-0.1716280684,0.5580443858,-1.9553891034,0.1426583065,0.3362892181,-1.9889238579
4.5,0.1357771281,0.6738584995,-2.1582844722,-0.1497281235,0.3370766106,-1.8356949365,0.1106828955,0.6283941575,-1.8474653407,0.1049606475,0.3195711244,-1.6942272266,-0.1586552622,0.6703438069,-2.0047459354,0.1272808533,0.3373029937,-1.9772516002
4.6,0.1199218533,0.7986954582,-2.185456583,-0.130211443,0.3373596405,-1.8397816661,0.0998973858,0.7171842831,-1.8954182773,0.0922642294,0.323301904,-1.7170382538,-0.1418970546,0.7617434462,-2.037707097,0.1091004998,0.3383188802,-1.9626303807
4.7,0.0996204663,0.9440606929,-2.1979796078,-0.1077712867,0.3376206406,-1.843747595,0.0853858366,0.795337591,-1.9395068193,0.0773352575,0.3270697039,-1.7423783408,-0.1198044536,0.8384612657,-2.0607454546,0.0888387184,0.3391784927,-1.9452139389
4.8,0.0752580345,1.1104347129,-2.1849481398,-0.0829520663,0.337839174,-1.8472394273,0.0668314937,0.8778088804,-1.9843179652,0.0603864432,0.3306170886,-1.7693585918,-0.0923083506,0.9158442991,-2.0785422015,0.067185891,0.3397227578,-1.925190646
4.9,0.0491890393,1.2473453382,-2.138838777,-0.0563213246,0.3380020608,-1.849960112,0.0454407448,0.9544123242,-2.0257475981,0.0416556883,0.3337346485,-1.7971533768,-0.0616361148,0.9829326359,-2.089113663,0.0447844695,0.3398046683,-1.9028038678
5,0.0235047397,1.3253681083,-2.0773670979,-0.0284684972,0.3381019831,-1.8516855233,0.0226129168,1.0145849416,-2.0623883075,0.0214186417,0.336270594,-1.8250138231,-0.030086157,1.0296933064,-2.0934950169,0.0222171032,0.3393030076,-1.8783674182
5.1,0,1.3374257136,-2.0313503185,-1.65211759616839E-17,0.3381355965,-1.8522764,0,1.0471975512,-2.0943951024,0,0.3381355965,-1.8522764,0,1.0471975512,-2.0943951024,0,0.3381355965,-1.8522764
5.2,-0.0226129168,1.2868458074,-2.0136563255,0.0284684972,0.3381019831,-1.8516855233,-0.0235047397,1.0449286325,-2.1249234898,-0.0222171032,0.3393030076,-1.8783674182,0.030086157,1.0296933064,-2.0934950169,-0.0214186417,0.336270594,-1.8250138231
5.3,-0.0454407448,1.1907081115,-2.0054743432,0.0563213246,0.3380020608,-1.849960112,-0.0491890393,1.0116058824,-2.1538095408,-0.0447844695,0.3398046683,-1.9028038678,0.0616361148,0.9829326359,-2.089113663,-0.0416556883,0.3337346485,-1.7971533768
5.4,-0.0668314937,1.0672265574,-1.9894260674,0.0829520663,0.337839174,-1.8472394273,-0.0752580345,0.9530419592,-2.17561715,-0.067185891,0.3397227578,-1.925190646,0.0923083506,0.9158442991,-2.0785422015,-0.0603864432,0.3306170886,-1.7693585918
5.5,-0.0853858366,0.9418311808,-1.9592800732,0.1077712867,0.3376206406,-1.843747595,-0.0996204663,0.8780433334,-2.186390229,-0.0888387184,0.3391784927,-1.9452139389,0.1198044536,0.8384612657,-2.0607454546,-0.0773352575,0.3270697039,-1.7423783408
5.6,-0.0998973858,0.8450320857,-1.9236927336,0.130211443,0.3373596405,-1.8397816661,-0.1199218533,0.7986954582,-2.185456583,-0.1091004998,0.3383188802,-1.9626303807,0.1418970546,0.7617434462,-2.037707097,-0.0922642294,0.323301904,-1.7170382538
5.7,-0.1106828955,0.7768332134,-1.8916374163,0.1497281235,0.3370766106,-1.8356949365,-0.1357771281,0.699454988,-2.167581442,-0.1272808533,0.3373029937,-1.9772516002,0.1586552622,0.6703438069,-2.0047459354,-0.1049606475,0.3195711244,-1.6942272266
5.8,-0.1189065104,0.7186631304,-1.862218252,0.1657972559,0.3367993221,-1.8318755372,-0.1483324518,0.5756180222,-2.1274400268,-0.1426583065,0.3362892181,-1.9889238579,0.1716280684,0.5580443858,-1.9553891034,-0.1152235642,0.3161683445,-1.6748779308
5.9,-0.1246936674,0.6734586077,-1.8380489097,0.1779084337,0.3365610405,-1.8287202911,-0.1574206457,0.4567664873,-2.0741489831,-0.1545015203,0.3354245009,-1.9975026122,0.1808590299,0.4495844238,-1.8974861564,-0.1228495803,0.3133985838,-1.6599402242
6,-0.1281316755,0.6441544314,-1.8218416121,0.18555495,0.3363965765,-1.8266038175,-0.1629216849,0.3688777567,-2.0256978186,-0.1620942267,0.3348358242,-2.0028220039,0.1863827892,0.3683210423,-1.8472473621,-0.1276176027,0.3115563811,-1.6503467673
6.1,-0.1292720092,0.633718009,-1.8160142412,0.1882215053,0.3363365423,-1.8258428677,-0.1647633908,0.3346229737,-2.0046593572,-0.1647633908,0.3346229737,-2.0046593572,0.1882215053,0.3363365423,-1.8258428677,-0.1292720092,0.3108966136,-1.646971033
6.2,-0.1276176027,0.6348259671,-1.8194850463,0.1863827892,0.3683210423,-1.8472473621,-0.1620942267,0.3348358242,-2.0028220039,-0.1629216849,0.3629685965,-2.0219110641,0.18555495,0.3363965765,-1.8266038175,-0.1281316755,0.3415347146,-1.6695239322
6.3,-0.1228495803,0.6379576501,-1.8293603206,0.1808590299,0.4495844238,-1.8974861564,-0.1545015203,0.3354245009,-1.9975026122,-0.1574206457,0.4385754681,-2.0638422338,0.1779084337,0.3365610405,-1.8287202911,-0.1246936674,0.419000193,-1.7233551991
6.4,-0.1152235642,0.6427822173,-1.8447714772,0.1716280684,0.5580443858,-1.9553891034,-0.1426583065,0.3362892181,-1.9889238579,-0.1483324518,0.5474661698,-2.1142794468,0.1657972559,0.3367993221,-1.8318755372,-0.1189065104,0.5217920761,-1.7877691156
6.5,-0.1049606475,0.6489332988,-1.8647978804,0.1586552622,0.6703438069,-2.0047459354,-0.1272808533,0.3373029937,-1.9772516002,-0.1357771281,0.6738584995,-2.1582844722,0.1497281235,0.3370766106,-1.8356949365,-0.1106828955,0.6283941575,-1.8474653407
6.6,-0.0922642294,0.6560327256,-1.8885020004,0.1418970546,0.7617434462,-2.037707097,-0.1091004998,0.3383188802,-1.9626303807,-0.1199218533,0.7986954582,-2.185456583,0.130211443,0.3373596405,-1.8397816661,-0.0998973858,0.7171842831,-1.8954182773
6.7,-0.0773352575,0.6637106352,-1.9149584064,0.1198044536,0.8384612657,-2.0607454546,-0.0888387184,0.3391784927,-1.9452139389,-0.0996204663,0.9440606929,-2.1979796078,0.1077712867,0.3376206406,-1.843747595,-0.0853858366,0.795337591,-1.9395068193
6.8,-0.0603864432,0.6716219109,-1.9432765707,0.0923083506,0.9158442991,-2.0785422015,-0.067185891,0.3397227578,-1.925190646,-0.0752580345,1.1104347129,-2.1849481398,0.0829520663,0.337839174,-1.8472394273,-0.0668314937,0.8778088804,-1.9843179652
6.9,-0.0416556883,0.6794591185,-1.9726181086,0.0616361148,0.9829326359,-2.089113663,-0.0447844695,0.3398046683,-1.9028038678,-0.0491890393,1.2473453382,-2.138838777,0.0563213246,0.3380020608,-1.849960112,-0.0454407448,0.9544123242,-2.0257475981
7,-0.0214186417,0.6869621393,-2.0022093748,0.030086157,1.0296933064,-2.0934950169,-0.0222171032,0.3393030076,-1.8783674182,-0.0235047397,1.3253681083,-2.0773670979,0.0284684972,0.3381019831,-1.8516855233,-0.0226129168,1.0145849416,-2.0623883075
7.1,0,0.6939246048,-2.0313503185,0,1.0471975512,-2.0943951024,0,0.3381355965,-1.8522764,0,1.3374257136,-2.0313503185,1.65211759616839E-17,0.3381355965,-1.8522764,0,1.0471975512,-2.0943951024
7.2,0.0222171032,0.7001970993,-2.0594202377,-0.030086157,1.0296933064,-2.0934950169,0.0214186417,0.336270594,-1.8250138231,0.0226129168,1.2868458074,-2.0136563255,-0.0284684972,0.3381019831,-1.8516855233,0.0235047397,1.0449286325,-2.1249234898
7.3,0.0447844695,0.7056870049,-2.0858806804,-0.0616361148,0.9829326359,-2.089113663,0.0416556883,0.3337346485,-1.7971533768,0.0454407448,1.1907081115,-2.0054743432,-0.0563213246,0.3380020608,-1.849960112,0.0491890393,1.0116058824,-2.1538095408
7.4,0.067185891,0.7103548954,-2.1102753245,-0.0923083506,0.9158442991,-2.0785422015,0.0603864432,0.3306170886,-1.7693585918,0.0668314937,1.0672265574,-1.9894260674,-0.0829520663,0.337839174,-1.8472394273,0.0752580345,0.9530419592,-2.17561715
7.5,0.0888387184,0.7142075718,-2.1322263127,-0.1198044536,0.8384612657,-2.0607454546,0.0773352575,0.3270697039,-1.7423783408,0.0853858366,0.9418311808,-1.9592800732,-0.1077712867,0.3376206406,-1.843747595,0.0996204663,0.8780433334,-2.186390229
7.6,0.1091004998,0.7172881447,-2.1514262969,-0.1418970546,0.7617434462,-2.037707097,0.0922642294,0.323301904,-1.7170382538,0.0998973858,0.8450320857,-1.9236927336,-0.130211443,0.3373596405,-1.8397816661,0.1199218533,0.7986954582,-2.185456583
7.7,0.1272808533,0.7196638962,-2.1676253932,-0.1586552622,0.6703438069,-2.0047459354,0.1049606475,0.3195711244,-1.6942272266,0.1106828955,0.7768332134,-1.8916374163,-0.1497281235,0.3370766106,-1.8356949365,0.1357771281,0.699454988,-2.167581442
7.8,0.1426583065,0.7214128514,-2.1806123756,-0.1716280684,0.5580443858,-1.9553891034,0.1152235642,0.3161683445,-1.6748779308,0.1189065104,0.7186631304,-1.862218252,-0.1657972559,0.3367993221,-1.8318755372,0.1483324518,0.5756180222,-2.1274400268
7.9,0.1545015203,0.7226099088,-2.1901897078,-0.1808590299,0.4495844238,-1.8974861564,0.1228495803,0.3133985838,-1.6599402242,0.1246936674,0.6734586077,-1.8380489097,-0.1779084337,0.3365610405,-1.8287202911,0.1574206457,0.4567664873,-2.0741489831
8,0.1620942267,0.7233129553,-2.1961423916,-0.1863827892,0.3683210423,-1.8472473621,0.1276176027,0.3115563811,-1.6503467673,0.1281316755,0.6441544314,-1.8218416121,-0.18555495,0.3363965765,-1.8266038175,0.1629216849,0.3688777567,-2.0256978186
8.1,0.1647633908,0.7235486351,-2.198201039,-0.1882215053,0.3363365423,-1.8258428677,0.1292720092,0.3108966136,-1.646971033,0.1292720092,0.633718009,-1.8160142412,-0.1882215053,0.3363365423,-1.8258428677,0.1647633908,0.3346229737,-2.0046593572
8.2,0.1647633908,0.7235486351,-2.198201039,-0.1882215053,0.3363365423,-1.8258428677,0.1292720092,0.3108966136,-1.646971033,0.1292720092,0.633718009,-1.8160142412,-0.1882215053,0.3363365423,-1.8258428677,0.1647633908,0.3346229737,-2.0046593572
8.3,0.1629216849,0.7358451495,-2.2008933359,-0.18555495,0.3363965765,-1.8266038175,0.1281316755,0.3415347146,-1.6695239322,0.1276176027,0.6348259671,-1.8194850463,-0.1863827892,0.3683210423,-1.8472473621,0.1620942267,0.3348358242,-2.0028220039
8.4,0.1574206457,0.7700579525,-2.2074149503,-0.1779084337,0.3365610405,-1.8287202911,0.1246936674,0.419000193,-1.7233551991,0.1228495803,0.6379576501,-1.8293603206,-0.1808590299,0.4495844238,-1.8974861564,0.1545015203,0.3354245009,-1.9975026122
8.5,0.1483324518,0.8219456241,-2.2147721148,-0.1657972559,0.3367993221,-1.8318755372,0.1189065104,0.5217920761,-1.7877691156,0.1152235642,0.6427822173,-1.8447714772,-0.1716280684,0.5580443858,-1.9553891034,0.1426583065,0.3362892181,-1.9889238579
8.6,0.1357771281,0.8867402672,-2.2195555569,-0.1497281235,0.3370766106,-1.8356949365,0.1106828955,0.6283941575,-1.8474653407,0.1049606475,0.6489332988,-1.8647978804,-0.1586552622,0.6703438069,-2.0047459354,0.1272808533,0.3373029937,-1.9772516002
8.7,0.1199218533,0.9589805301,-2.2184886125,-0.130211443,0.3373596405,-1.8397816661,0.0998973858,0.7171842831,-1.8954182773,0.0922642294,0.6560327256,-1.8885020004,-0.1418970546,0.7617434462,-2.037707097,0.1091004998,0.3383188802,-1.9626303807
8.8,0.0996204663,1.0576597094,-2.2090778751,-0.1077712867,0.3376206406,-1.843747595,0.0853858366,0.795337591,-1.9395068193,0.0773352575,0.6637106352,-1.9149584064,-0.1198044536,0.8384612657,-2.0607454546,0.0888387184,0.3391784927,-1.9452139389
8.9,0.0752580345,1.1762016279,-2.1813082456,-0.0829520663,0.337839174,-1.8472394273,0.0668314937,0.8778088804,-1.9843179652,0.0603864432,0.6716219109,-1.9432765707,-0.0923083506,0.9158442991,-2.0785422015,0.067185891,0.3397227578,-1.925190646
9,0.0491890393,1.2754292282,-2.132042635,-0.0563213246,0.3380020608,-1.849960112,0.0454407448,0.9544123242,-2.0257475981,0.0416556883,0.6794591185,-1.9726181086,-0.0616361148,0.9829326359,-2.089113663,0.0447844695,0.3398046683,-1.9028038678
9.1,0.0235047397,1.3319954161,-2.0745275327,-0.0284684972,0.3381019831,-1.8516855233,0.0226129168,1.0145849416,-2.0623883075,0.0214186417,0.6869621393,-2.0022093748,-0.030086157,1.0296933064,-2.0934950169,0.0222171032,0.3393030076,-1.8783674182
9.2,0,1.3374257136,-2.0313503185,-1.65211759616839E-17,0.3381355965,-1.8522764,0,1.0471975512,-2.0943951024,0,0.6939246048,-2.0313503185,0,1.0471975512,-2.0943951024,0,0.3381355965,-1.8522764
9.3,-0.0226129168,1.2868458074,-2.0136563255,0.0284684972,0.3381019831,-1.8516855233,-0.0235047397,1.0449286325,-2.1249234898,-0.0222171032,0.7001970993,-2.0594202377,0.030086157,1.0296933064,-2.0934950169,-0.0214186417,0.336270594,-1.8250138231
9.4,-0.0454407448,1.1907081115,-2.0054743432,0.0563213246,0.3380020608,-1.849960112,-0.0491890393,1.0116058824,-2.1538095408,-0.0447844695,0.7056870049,-2.0858806804,0.0616361148,0.9829326359,-2.089113663,-0.0416556883,0.3337346485,-1.7971533768
9.5,-0.0668314937,1.0672265574,-1.9894260674,0.0829520663,0.337839174,-1.8472394273,-0.0752580345,0.9530419592,-2.17561715,-0.067185891,0.7103548954,-2.1102753245,0.0923083506,0.9158442991,-2.0785422015,-0.0603864432,0.3306170886,-1.7693585918
9.6,-0.0853858366,0.9418311808,-1.9592800732,0.1077712867,0.3376206406,-1.843747595,-0.0996204663,0.8780433334,-2.186390229,-0.0888387184,0.7142075718,-2.1322263127,0.1198044536,0.8384612657,-2.0607454546,-0.0773352575,0.3270697039,-1.7423783408
9.7,-0.0998973858,0.8450320857,-1.9236927336,0.130211443,0.3373596405,-1.8397816661,-0.1199218533,0.7986954582,-2.185456583,-0.1091004998,0.7172881447,-2.1514262969,0.1418970546,0.7617434462,-2.037707097,-0.0922642294,0.323301904,-1.7170382538
9.8,-0.1106828955,0.7768332134,-1.8916374163,0.1497281235,0.3370766106,-1.8356949365,-0.1357771281,0.699454988,-2.167581442,-0.1272808533,0.7196638962,-2.1676253932,0.1586552622,0.6703438069,-2.0047459354,-0.1049606475,0.3195711244,-1.6942272266
9.9,-0.1189065104,0.7186631304,-1.862218252,0.1657972559,0.3367993221,-1.8318755372,-0.1483324518,0.5756180222,-2.1274400268,-0.1426583065,0.7214128514,-2.1806123756,0.1716280684,0.5580443858,-1.9553891034,-0.1152235642,0.3161683445,-1.6748779308
10,-0.1246936674,0.6734586077,-1.8380489097,0.1779084337,0.3365610405,-1.8287202911,-0.1574206457,0.4567664873,-2.0741489831,-0.1545015203,0.7226099088,-2.1901897078,0.1808590299,0.4495844238,-1.8974861564,-0.1228495803,0.3133985838,-1.6599402242
10.1,-0.1281316755,0.6441544314,-1.8218416121,0.18555495,0.3363965765,-1.8266038175,-0.1629216849,0.3688777567,-2.0256978186,-0.1620942267,0.7233129553,-2.1961423916,0.1863827892,0.3683210423,-1.8472473621,-0.1276176027,0.3115563811,-1.6503467673
10.2,-0.1292720092,0.633718009,-1.8160142412,0.1882215053,0.3363365423,-1.8258428677,-0.1647633908,0.3346229737,-2.0046593572,-0.1647633908,0.7235486351,-2.198201039,0.1882215053,0.3363365423,-1.8258428677,-0.1292720092,0.3108966136,-1.646971033
10.3,-0.1276176027,0.6348259671,-1.8194850463,0.1863827892,0.3628028418,-1.8437099477,-0.1620942267,0.3348358242,-2.0028220039,-0.1629216849,0.7358451495,-2.2008933359,0.18555495,0.3363965765,-1.8266038175,-0.1281316755,0.3415347146,-1.6695239322
10.4,-0.1228495803,0.6379576501,-1.8293603206,0.1808590299,0.432837677,-1.8879419747,-0.1545015203,0.3354245009,-1.9975026122,-0.1574206457,0.7700579525,-2.2074149503,0.1779084337,0.3365610405,-1.8287202911,-0.1246936674,0.419000193,-1.7233551991
10.5,-0.1152235642,0.6427822173,-1.8447714772,0.1716280684,0.5325732829,-1.9433149798,-0.1426583065,0.3362892181,-1.9889238579,-0.1483324518,0.8219456241,-2.2147721148,0.1657972559,0.3367993221,-1.8318755372,-0.1189065104,0.5217920761,-1.7877691156
10.6,-0.1049606475,0.6489332988,-1.8647978804,0.1586552622,0.6474903121,-1.9962603355,-0.1272808533,0.3373029937,-1.9772516002,-0.1357771281,0.8867402672,-2.2195555569,0.1497281235,0.3370766106,-1.8356949365,-0.1106828955,0.6283941575,-1.8474653407
10.7,-0.0922642294,0.6560327256,-1.8885020004,0.1418970546,0.7617434462,-2.037707097,-0.1091004998,0.3383188802,-1.9626303807,-0.1199218533,0.9589805301,-2.2184886125,0.130211443,0.3373596405,-1.8397816661,-0.0998973858,0.7171842831,-1.8954182773
10.8,-0.0773352575,0.6637106352,-1.9149584064,0.1198044536,0.8977470472,-2.0714555244,-0.0888387184,0.3391784927,-1.9452139389,-0.0996204663,1.0576597094,-2.2090778751,0.1077712867,0.3376206406,-1.843747595,-0.0853858366,0.795337591,-1.9395068193
10.9,-0.0603864432,0.6716219109,-1.9432765707,0.0923083506,1.0600930507,-2.0873191476,-0.067185891,0.3397227578,-1.925190646,-0.0752580345,1.1762016279,-2.1813082456,0.0829520663,0.337839174,-1.8472394273,-0.0668314937,0.8778088804,-1.9843179652
11,-0.0416556883,0.6794591185,-1.9726181086,0.0616361148,1.2054376568,-2.0747143671,-0.0447844695,0.3398046683,-1.9028038678,-0.0491890393,1.2754292282,-2.132042635,0.0563213246,0.3380020608,-1.849960112,-0.0454407448,0.9544123242,-2.0257475981
11.1,-0.0214186417,0.6869621393,-2.0022093748,0.030086157,1.3026414035,-2.0467660135,-0.0222171032,0.3393030076,-1.8783674182,-0.0235047397,1.3319954161,-2.0745275327,0.0284684972,0.3381019831,-1.8516855233,-0.0226129168,1.0145849416,-2.0623883075
11.2,0,0.6939246048,-2.0313503185,0,1.3374257136,-2.0313503185,0,0.3381355965,-1.8522764,0,1.3374257136,-2.0313503185,1.65211759616839E-17,0.3381355965,-1.8522764,0,1.0471975512,-2.0943951024
11.3,0.0222171032,0.7001970993,-2.0594202377,-0.030086157,1.3091066415,-2.0439723755,0.0214186417,0.336270594,-1.8250138231,0.0226129168,1.2868458074,-2.0136563255,-0.0284684972,0.3381019831,-1.8516855233,0.0235047397,1.0449286325,-2.1249234898
11.4,0.0447844695,0.7056870049,-2.0858806804,-0.0616361148,1.2319925445,-2.0681699521,0.0416556883,0.3337346485,-1.7971533768,0.0454407448,1.1907081115,-2.0054743432,-0.0563213246,0.3380020608,-1.849960112,0.0491890393,1.0116058824,-2.1538095408
11.5,0.067185891,0.7103548954,-2.1102753245,-0.0923083506,1.1202517484,-2.0838970298,0.0603864432,0.3306170886,-1.7693585918,0.0668314937,1.0672265574,-1.9894260674,-0.0829520663,0.337839174,-1.8472394273,0.0752580345,0.9530419592,-2.17561715
11.6,0.0888387184,0.7142075718,-2.1322263127,-0.1198044536,0.9991555438,-2.0816862106,0.0773352575,0.3270697039,-1.7423783408,0.0853858366,0.9418311808,-1.9592800732,-0.1077712867,0.3376206406,-1.843747595,0.0996204663,0.8780433334,-2.186390229
11.7,0.1091004998,0.7172881447,-2.1514262969,-0.1418970546,0.9031863772,-2.0678030373,0.0922642294,0.323301904,-1.7170382538,0.0998973858,0.8450320857,-1.9236927336,-0.130211443,0.3373596405,-1.8397816661,0.1199218533,0.7986954582,-2.185456583
11.8,0.1272808533,0.7196638962,-2.1676253932,-0.1586552622,0.8349002995,-2.0518004365,0.1049606475,0.3195711244,-1.6942272266,0.1106828955,0.7768332134,-1.8916374163,-0.1497281235,0.3370766106,-1.8356949365,0.1357771281,0.699454988,-2.167581442
11.9,0.1426583065,0.7214128514,-2.1806123756,-0.1716280684,0.7754638846,-2.0344531068,0.1152235642,0.3161683445,-1.6748779308,0.1189065104,0.7186631304,-1.862218252,-0.1657972559,0.3367993221,-1.8318755372,0.1483324518,0.5756180222,-2.1274400268
12,0.1545015203,0.7226099088,-2.1901897078,-0.1808590299,0.7286855849,-2.0186417802,0.1228495803,0.3133985838,-1.6599402242,0.1246936674,0.6734586077,-1.8380489097,-0.1779084337,0.3365610405,-1.8287202911,0.1574206457,0.4567664873,-2.0741489831
12.1,0.1620942267,0.7233129553,-2.1961423916,-0.1863827892,0.6981199441,-2.007320876,0.1276176027,0.3115563811,-1.6503467673,0.1281316755,0.6441544314,-1.8218416121,-0.18555495,0.3363965765,-1.8266038175,0.1629216849,0.3688777567,-2.0256978186
12.2,0.1647633908,0.7235486351,-2.198201039,-0.1882215053,0.6871796036,-2.0030927935,0.1292720092,0.3108966136,-1.646971033,0.1292720092,0.633718009,-1.8160142412,-0.1882215053,0.3363365423,-1.8258428677,0.1647633908,0.3346229737,-2.0046593572
12.3,0.1647633908,0.7235486351,-2.198201039,-0.1882215053,0.6871796036,-2.0030927935,0.1292720092,0.3108966136,-1.646971033,0.1292720092,0.633718009,-1.8160142412,-0.1882215053,0.3363365423,-1.8258428677,0.1647633908,0.3346229737,-2.0046593572
12.4,0.1629216849,0.7358451495,-2.2008933359,-0.18555495,0.6873788998,-2.0039038003,0.1281316755,0.3415347146,-1.6695239322,0.1276176027,0.6348259671,-1.8194850463,-0.1863827892,0.3628028418,-1.8437099477,0.1620942267,0.3348358242,-2.0028220039
12.5,0.1574206457,0.7700579525,-2.2074149503,-0.1779084337,0.6879316642,-2.0061602515,0.1246936674,0.419000193,-1.7233551991,0.1228495803,0.6379576501,-1.8293603206,-0.1808590299,0.432837677,-1.8879419747,0.1545015203,0.3354245009,-1.9975026122
12.6,0.1483324518,0.8219456241,-2.2147721148,-0.1657972559,0.688751462,-2.0095262379,0.1189065104,0.5217920761,-1.7877691156,0.1152235642,0.6427822173,-1.8447714772,-0.1716280684,0.5325732829,-1.9433149798,0.1426583065,0.3362892181,-1.9889238579
12.7,0.1357771281,0.8867402672,-2.2195555569,-0.1497281235,0.6897369091,-2.0136040582,0.1106828955,0.6283941575,-1.8474653407,0.1049606475,0.6489332988,-1.8647978804,-0.1586552622,0.6474903121,-1.9962603355,0.1272808533,0.3373029937,-1.9772516002
12.8,0.1199218533,0.9589805301,-2.2184886125,-0.130211443,0.6907828267,-2.0179713567,0.0998973858,0.7171842831,-1.8954182773,0.0922642294,0.6560327256,-1.8885020004,-0.1418970546,0.7617434462,-2.037707097,0.1091004998,0.3383188802,-1.9626303807
12.9,0.0996204663,1.0576597094,-2.2090778751,-0.1077712867,0.6917892916,-2.0222136084,0.0853858366,0.795337591,-1.9395068193,0.0773352575,0.6637106352,-1.9149584064,-0.1198044536,0.8977470472,-2.0714555244,0.0888387184,0.3391784927,-1.9452139389
13,0.0752580345,1.1762016279,-2.1813082456,-0.0829520663,0.6926683752,-2.025952059,0.0668314937,0.8778088804,-1.9843179652,0.0603864432,0.6716219109,-1.9432765707,-0.0923083506,1.0600930507,-2.0873191476,0.067185891,0.3397227578,-1.925190646
13.1,0.0491890393,1.2754292282,-2.132042635,-0.0563213246,0.6933486712,-2.0288670739,0.0454407448,0.9544123242,-2.0257475981,0.0416556883,0.6794591185,-1.9726181086,-0.0616361148,1.2054376568,-2.0747143671,0.0447844695,0.3398046683,-1.9028038678
13.2,0.0235047397,1.3319954161,-2.0745275327,-0.0284684972,0.6937779714,-2.0307167193,0.0226129168,1.0145849416,-2.0623883075,0.0214186417,0.6869621393,-2.0022093748,-0.030086157,1.3026414035,-2.0467660135,0.0222171032,0.3393030076,-1.8783674182
13.3,0,1.3374257136,-2.0313503185,-1.65211759616839E-17,0.6939246048,-2.0313503185,0,1.0471975512,-2.0943951024,0,0.6939246048,-2.0313503185,0,1.3374257136,-2.0313503185,0,0.3381355965,-1.8522764
13.4,-0.0226129168,1.2868458074,-2.0136563255,0.0284684972,0.6937779714,-2.0307167193,-0.0235047397,1.0449286325,-2.1249234898,-0.0222171032,0.7001970993,-2.0594202377,0.030086157,1.3091066415,-2.0439723755,-0.0214186417,0.336270594,-1.8250138231
13.5,-0.0454407448,1.1907081115,-2.0054743432,0.0563213246,0.6933486712,-2.0288670739,-0.0491890393,1.0116058824,-2.1538095408,-0.0447844695,0.7056870049,-2.0858806804,0.0616361148,1.2319925445,-2.0681699521,-0.0416556883,0.3337346485,-1.7971533768
13.6,-0.0668314937,1.0672265574,-1.9894260674,0.0829520663,0.6926683752,-2.025952059,-0.0752580345,0.9530419592,-2.17561715,-0.067185891,0.7103548954,-2.1102753245,0.0923083506,1.1202517484,-2.0838970298,-0.0603864432,0.3306170886,-1.7693585918
13.7,-0.0853858366,0.9418311808,-1.9592800732,0.1077712867,0.6917892916,-2.0222136084,-0.0996204663,0.8780433334,-2.186390229,-0.0888387184,0.7142075718,-2.1322263127,0.1198044536,0.9991555438,-2.0816862106,-0.0773352575,0.3270697039,-1.7423783408
13.8,-0.0998973858,0.8450320857,-1.9236927336,0.130211443,0.6907828267,-2.0179713567,-0.1199218533,0.7986954582,-2.185456583,-0.1091004998,0.7172881447,-2.1514262969,0.1418970546,0.9031863772,-2.0678030373,-0.0922642294,0.323301904,-1.7170382538
13.9,-0.1106828955,0.7768332134,-1.8916374163,0.1497281235,0.6897369091,-2.0136040582,-0.1357771281,0.699454988,-2.167581442,-0.1272808533,0.7196638962,-2.1676253932,0.1586552622,0.8349002995,-2.0518004365,-0.1049606475,0.3195711244,-1.6942272266
14,-0.1189065104,0.7186631304,-1.862218252,0.1657972559,0.688751462,-2.0095262379,-0.1483324518,0.5756180222,-2.1274400268,-0.1426583065,0.7214128514,-2.1806123756,0.1716280684,0.7754638846,-2.0344531068,-0.1152235642,0.3161683445,-1.6748779308
14.1,-0.1246936674,0.6734586077,-1.8380489097,0.1779084337,0.6879316642,-2.0061602515,-0.1574206457,0.4567664873,-2.0741489831,-0.1545015203,0.7226099088,-2.1901897078,0.1808590299,0.7286855849,-2.0186417802,-0.1228495803,0.3133985838,-1.6599402242
14.2,-0.1281316755,0.6441544314,-1.8218416121,0.18555495,0.6873788998,-2.0039038003,-0.1629216849,0.3688777567,-2.0256978186,-0.1620942267,0.7233129553,-2.1961423916,0.1863827892,0.6981199441,-2.007320876,-0.1276176027,0.3115563811,-1.6503467673
14.3,-0.1292720092,0.633718009,-1.8160142412,0.1882215053,0.6871796036,-2.0030927935,-0.1647633908,0.3346229737,-2.0046593572,-0.1647633908,0.7235486351,-2.198201039,0.1882215053,0.6871796036,-2.0030927935,-0.1292720092,0.3108966136,-1.646971033
14.4,-0.1276176027,0.6348259671,-1.8194850463,0.1863827892,0.6981199441,-2.007320876,-0.1620942267,0.3348358242,-2.0028220039,-0.1629216849,0.7358451495,-2.2008933359,0.18555495,0.6873788998,-2.0039038003,-0.1281316755,0.3415347146,-1.6695239322
14.5,-0.1228495803,0.6379576501,-1.8293603206,0.1808590299,0.7286855849,-2.0186417802,-0.1545015203,0.3354245009,-1.9975026122,-0.1574206457,0.7700579525,-2.2074149503,0.1779084337,0.6879316642,-2.0061602515,-0.1246936674,0.419000193,-1.7233551991
14.6,-0.1152235642,0.6427822173,-1.8447714772,0.1716280684,0.7754638846,-2.0344531068,-0.1426583065,0.3362892181,-1.9889238579,-0.1483324518,0.8219456241,-2.2147721148,0.1657972559,0.688751462,-2.0095262379,-0.1189065104,0.5217920761,-1.7877691156
14.7,-0.1049606475,0.6489332988,-1.8647978804,0.1586552622,0.8349002995,-2.0518004365,-0.1272808533,0.3373029937,-1.9772516002,-0.1357771281,0.8867402672,-2.2195555569,0.1497281235,0.6897369091,-2.0136040582,-0.1106828955,0.6283941575,-1.8474653407
14.8,-0.0922642294,0.6560327256,-1.8885020004,0.1418970546,0.9031863772,-2.0678030373,-0.1091004998,0.3383188802,-1.9626303807,-0.1199218533,0.9589805301,-2.2184886125,0.130211443,0.6907828267,-2.0179713567,-0.0998973858,0.7171842831,-1.8954182773
14.9,-0.0773352575,0.6637106352,-1.9149584064,0.1198044536,0.9991555438,-2.0816862106,-0.0888387184,0.3391784927,-1.9452139389,-0.0996204663,1.0576597094,-2.2090778751,0.1077712867,0.6917892916,-2.0222136084,-0.0853858366,0.795337591,-1.9395068193
15,-0.0603864432,0.6716219109,-1.9432765707,0.0923083506,1.1202517484,-2.0838970298,-0.067185891,0.3397227578,-1.925190646,-0.0752580345,1.1762016279,-2.1813082456,0.0829520663,0.6926683752,-2.025952059,-0.0668314937,0.8778088804,-1.9843179652
15.1,-0.0416556883,0.6794591185,-1.9726181086,0.0616361148,1.2319925445,-2.0681699521,-0.0447844695,0.3398046683,-1.9028038678,-0.0491890393,1.2754292282,-2.132042635,0.0563213246,0.6933486712,-2.0288670739,-0.0454407448,0.9544123242,-2.0257475981
15.2,-0.0214186417,0.6869621393,-2.0022093748,0.030086157,1.3091066415,-2.0439723755,-0.0222171032,0.3393030076,-1.8783674182,-0.0235047397,1.3319954161,-2.0745275327,0.0284684972,0.6937779714,-2.0307167193,-0.0226129168,1.0145849416,-2.0623883075
15.3,0,0.6939246048,-2.0313503185,0,1.3374257136,-2.0313503185,0,0.3381355965,-1.8522764,0,1.3374257136,-2.0313503185,1.65211759616839E-17,0.6939246048,-2.0313503185,0,1.0471975512,-2.0943951024
15.4,0.0222171032,0.7001970993,-2.0594202377,-0.030086157,1.3091066415,-2.0439723755,0.0214186417,0.336270594,-1.8250138231,0.0226129168,1.2868458074,-2.0136563255,-0.0284684972,0.6937779714,-2.0307167193,0.0235047397,1.0449286325,-2.1249234898
15.5,0.0447844695,0.7056870049,-2.0858806804,-0.0616361148,1.2319925445,-2.0681699521,0.0416556883,0.3337346485,-1.7971533768,0.0454407448,1.1907081115,-2.0054743432,-0.0563213246,0.6933486712,-2.0288670739,0.0491890393,1.0116058824,-2.1538095408
15.6,0.067185891,0.7103548954,-2.1102753245,-0.0923083506,1.1202517484,-2.0838970298,0.0603864432,0.3306170886,-1.7693585918,0.0668314937,1.0672265574,-1.9894260674,-0.0829520663,0.6926683752,-2.025952059,0.0752580345,0.9530419592,-2.17561715
15.7,0.0888387184,0.7142075718,-2.1322263127,-0.1198044536,0.9991555438,-2.0816862106,0.0773352575,0.3270697039,-1.7423783408,0.0853858366,0.9418311808,-1.9592800732,-0.1077712867,0.6917892916,-2.0222136084,0.0996204663,0.8780433334,-2.186390229
15.8,0.1091004998,0.7172881447,-2.1514262969,-0.1418970546,0.9031863772,-2.0678030373,0.0922642294,0.323301904,-1.7170382538,0.0998973858,0.8450320857,-1.9236927336,-0.130211443,0.6907828267,-2.0179713567,0.1199218533,0.7986954582,-2.185456583
15.9,0.1272808533,0.7196638962,-2.1676253932,-0.1586552622,0.8349002995,-2.0518004365,0.1049606475,0.3195711244,-1.6942272266,0.1106828955,0.7768332134,-1.8916374163,-0.1497281235,0.6897369091,-2.0136040582,0.1357771281,0.699454988,-2.167581442
16,0.1426583065,0.7214128514,-2.1806123756,-0.1716280684,0.7754638846,-2.0344531068,0.1152235642,0.3161683445,-1.6748779308,0.1189065104,0.7186631304,-1.862218252,-0.1657972559,0.688751462,-2.0095262379,0.1483324518,0.5756180222,-2.1274400268
16.1,0.1545015203,0.7226099088,-2.1901897078,-0.1808590299,0.7286855849,-2.0186417802,0.1228495803,0.3133985838,-1.6599402242,0.1246936674,0.6734586077,-1.8380489097,-0.1779084337,0.6879316642,-2.0061602515,0.1574206457,0.4567664873,-2.0741489831
16.2,0.1620942267,0.7233129553,-2.1961423916,-0.1863827892,0.6981199441,-2.007320876,0.1276176027,0.3115563811,-1.6503467673,0.1281316755,0.6441544314,-1.8218416121,-0.18555495,0.6873788998,-2.0039038003,0.1629216849,0.3688777567,-2.0256978186
16.3,0.1647633908,0.7235486351,-2.198201039,-0.1882215053,0.6871796036,-2.0030927935,0.1292720092,0.3108966136,-1.646971033,0.1292720092,0.633718009,-1.8160142412,-0.1882215053,0.6871796036,-2.0030927935,0.1647633908,0.3346229737,-2.0046593572
16.4,0.1647633908,0.7235486351,-2.198201039,-0.1882215053,0.6871796036,-2.0030927935,0.1292720092,0.3108966136,-1.646971033,0.1292720092,0.633718009,-1.8160142412,-0.1882215053,0.6871796036,-2.0030927935,0.1647633908,0.3346229737,-2.0046593572
16.5,0.1629216849,0.7358451495,-2.2008933359,-0.18555495,0.6873788998,-2.0039038003,0.1281316755,0.3363322138,-1.6661030439,0.1276176027,0.6348259671,-1.8194850463,-0.1863827892,0.6981199441,-2.007320876,0.1620942267,0.3348358242,-2.0028220039
16.6,0.1574206457,0.7700579525,-2.2074149503,-0.1779084337,0.6879316642,-2.0061602515,0.1246936674,0.4033803581,-1.7142012541,0.1228495803,0.6379576501,-1.8293603206,-0.1808590299,0.7286855849,-2.0186417802,0.1545015203,0.3354245009,-1.9975026122
16.7,0.1483324518,0.8219456241,-2.2147721148,-0.1657972559,0.688751462,-2.0095262379,0.1189065104,0.4983337549,-1.77629481,0.1152235642,0.6427822173,-1.8447714772,-0.1716280684,0.7754638846,-2.0344531068,0.1426583065,0.3362892181,-1.9889238579
16.8,0.1357771281,0.8867402672,-2.2195555569,-0.1497281235,0.6897369091,-2.0136040582,0.1106828955,0.6075496811,-1.8394552699,0.1049606475,0.6489332988,-1.8647978804,-0.1586552622,0.8349002995,-2.0518004365,0.1272808533,0.3373029937,-1.9772516002
16.9,0.1199218533,0.9589805301,-2.2184886125,-0.130211443,0.6907828267,-2.0179713567,0.0998973858,0.7171842831,-1.8954182773,0.0922642294,0.6560327256,-1.8885020004,-0.1418970546,0.9031863772,-2.0678030373,0.1091004998,0.3383188802,-1.9626303807
17,0.0996204663,1.0576597094,-2.2090778751,-0.1077712867,0.6917892916,-2.0222136084,0.0853858366,0.8495437353,-1.9496286341,0.0773352575,0.6637106352,-1.9149584064,-0.1198044536,0.9991555438,-2.0816862106,0.0888387184,0.3391784927,-1.9452139389
17.1,0.0752580345,1.1762016279,-2.1813082456,-0.0829520663,0.6926683752,-2.025952059,0.0668314937,1.0115584069,-1.9926885191,0.0603864432,0.6716219109,-1.9432765707,-0.0923083506,1.1202517484,-2.0838970298,0.067185891,0.3397227578,-1.925190646
17.2,0.0491890393,1.2754292282,-2.132042635,-0.0563213246,0.6933486712,-2.0288670739,0.0454407448,1.1654906036,-2.0118135831,0.0416556883,0.6794591185,-1.9726181086,-0.0616361148,1.2319925445,-2.0681699521,0.0447844695,0.3398046683,-1.9028038678
17.3,0.0235047397,1.3319954161,-2.0745275327,-0.0284684972,0.6937779714,-2.0307167193,0.0226129168,1.2805340192,-2.016408346,0.0214186417,0.6869621393,-2.0022093748,-0.030086157,1.3091066415,-2.0439723755,0.0222171032,0.3393030076,-1.8783674182
17.4,0,1.3374257136,-2.0313503185,-1.65211759616839E-17,0.6939246048,-2.0313503185,0,1.3374257136,-2.0313503185,0,0.6939246048,-2.0313503185,0,1.3374257136,-2.0313503185,0,0.3381355965,-1.8522764
17.5,-0.0226129168,1.2868458074,-2.0136563255,0.0284684972,0.6937779714,-2.0307167193,-0.0235047397,1.3319954161,-2.0745275327,-0.0222171032,0.7001970993,-2.0594202377,0.030086157,1.3091066415,-2.0439723755,-0.0214186417,0.336270594,-1.8250138231
17.6,-0.0454407448,1.1907081115,-2.0054743432,0.0563213246,0.6933486712,-2.0288670739,-0.0491890393,1.2754292282,-2.132042635,-0.0447844695,0.7056870049,-2.0858806804,0.0616361148,1.2319925445,-2.0681699521,-0.0416556883,0.3337346485,-1.7971533768
17.7,-0.0668314937,1.0672265574,-1.9894260674,0.0829520663,0.6926683752,-2.025952059,-0.0752580345,1.1762016279,-2.1813082456,-0.067185891,0.7103548954,-2.1102753245,0.0923083506,1.1202517484,-2.0838970298,-0.0603864432,0.3306170886,-1.7693585918
17.8,-0.0853858366,0.9418311808,-1.9592800732,0.1077712867,0.6917892916,-2.0222136084,-0.0996204663,1.0576597094,-2.2090778751,-0.0888387184,0.7142075718,-2.1322263127,0.1198044536,0.9991555438,-2.0816862106,-0.0773352575,0.3270697039,-1.7423783408
17.9,-0.0998973858,0.8450320857,-1.9236927336,0.130211443,0.6907828267,-2.0179713567,-0.1199218533,0.9589805301,-2.2184886125,-0.1091004998,0.7172881447,-2.1514262969,0.1418970546,0.9031863772,-2.0678030373,-0.0922642294,0.323301904,-1.7170382538
18,-0.1106828955,0.7768332134,-1.8916374163,0.1497281235,0.6897369091,-2.0136040582,-0.1357771281,0.8867402672,-2.2195555569,-0.1272808533,0.7196638962,-2.1676253932,0.1586552622,0.8349002995,-2.0518004365,-0.1049606475,0.3195711244,-1.6942272266
18.1,-0.1189065104,0.7186631304,-1.862218252,0.1657972559,0.688751462,-2.0095262379,-0.1483324518,0.8219456241,-2.2147721148,-0.1426583065,0.7214128514,-2.1806123756,0.1716280684,0.7754638846,-2.0344531068,-0.1152235642,0.3161683445,-1.6748779308
18.2,-0.1246936674,0.6734586077,-1.8380489097,0.1779084337,0.6879316642,-2.0061602515,-0.1574206457,0.7700579525,-2.2074149503,-0.1545015203,0.7226099088,-2.1901897078,0.1808590299,0.7286855849,-2.0186417802,-0.1228495803,0.3133985838,-1.6599402242
18.3,-0.1281316755,0.6441544314,-1.8218416121,0.18555495,0.6873788998,-2.0039038003,-0.1629216849,0.7358451495,-2.2008933359,-0.1620942267,0.7233129553,-2.1961423916,0.1863827892,0.6981199441,-2.007320876,-0.1276176027,0.3115563811,-1.6503467673
18.4,-0.1292720092,0.633718009,-1.8160142412,0.1882215053,0.6871796036,-2.0030927935,-0.1647633908,0.7235486351,-2.198201039,-0.1647633908,0.7235486351,-2.198201039,0.1882215053,0.6871796036,-2.0030927935,-0.1292720092,0.3108966136,-1.646971033
18.5,-0.1276176027,0.6348259671,-1.8194850463,0.1863827892,0.6981199441,-2.007320876,-0.1620942267,0.7233129553,-2.1961423916,-0.1629216849,0.7358451495,-2.2008933359,0.18555495,0.6873788998,-2.0039038003,-0.1281316755,0.3363322138,-1.6661030439
18.6,-0.1228495803,0.6379576501,-1.8293603206,0.1808590299,0.7286855849,-2.0186417802,-0.1545015203,0.7226099088,-2.1901897078,-0.1574206457,0.7700579525,-2.2074149503,0.1779084337,0.6879316642,-2.0061602515,-0.1246936674,0.4033803581,-1.7142012541
18.7,-0.1152235642,0.6427822173,-1.8447714772,0.1716280684,0.7754638846,-2.0344531068,-0.1426583065,0.7214128514,-2.1806123756,-0.1483324518,0.8219456241,-2.2147721148,0.1657972559,0.688751462,-2.0095262379,-0.1189065104,0.4983337549,-1.77629481
18.8,-0.1049606475,0.6489332988,-1.8647978804,0.1586552622,0.8349002995,-2.0518004365,-0.1272808533,0.7196638962,-2.1676253932,-0.1357771281,0.8867402672,-2.2195555569,0.1497281235,0.6897369091,-2.0136040582,-0.1106828955,0.6075496811,-1.8394552699
18.9,-0.0922642294,0.6560327256,-1.8885020004,0.1418970546,0.9031863772,-2.0678030373,-0.1091004998,0.7172881447,-2.1514262969,-0.1199218533,0.9589805301,-2.2184886125,0.130211443,0.6907828267,-2.0179713567,-0.0998973858,0.7171842831,-1.8954182773
19,-0.0773352575,0.6637106352,-1.9149584064,0.1198044536,0.9991555438,-2.0816862106,-0.0888387184,0.7142075718,-2.1322263127,-0.0996204663,1.0576597094,-2.2090778751,0.1077712867,0.6917892916,-2.0222136084,-0.0853858366,0.8495437353,-1.9496286341
19.1,-0.0603864432,0.6716219109,-1.9432765707,0.0923083506,1.1202517484,-2.0838970298,-0.067185891,0.7103548954,-2.1102753245,-0.0752580345,1.1762016279,-2.1813082456,0.0829520663,0.6926683752,-2.025952059,-0.0668314937,1.0115584069,-1.9926885191
19.2,-0.0416556883,0.6794591185,-1.9726181086,0.0616361148,1.2319925445,-2.0681699521,-0.0447844695,0.7056870049,-2.0858806804,-0.0491890393,1.2754292282,-2.132042635,0.0563213246,0.6933486712,-2.0288670739,-0.0454407448,1.1654906036,-2.0118135831
19.3,-0.0214186417,0.6869621393,-2.0022093748,0.030086157,1.3091066415,-2.0439723755,-0.0222171032,0.7001970993,-2.0594202377,-0.0235047397,1.3319954161,-2.0745275327,0.0284684972,0.6937779714,-2.0307167193,-0.0226129168,1.2805340192,-2.016408346
19.4,0,0.6939246048,-2.0313503185,0,1.3374257136,-2.0313503185,0,0.6939246048,-2.0313503185,0,1.3374257136,-2.0313503185,1.65211759616839E-17,0.6939246048,-2.0313503185,0,1.3374257136,-2.0313503185
19.5,0.0222171032,0.7001970993,-2.0594202377,-0.030086157,1.3091066415,-2.0439723755,0.0214186417,0.6869621393,-2.0022093748,0.0226129168,1.2868458074,-2.0136563255,-0.0284684972,0.6937779714,-2.0307167193,0.0235047397,1.3319954161,-2.0745275327
19.6,0.0447844695,0.7056870049,-2.0858806804,-0.0616361148,1.2319925445,-2.0681699521,0.0416556883,0.6794591185,-1.9726181086,0.0454407448,1.1907081115,-2.0054743432,-0.0563213246,0.6933486712,-2.0288670739,0.0491890393,1.2754292282,-2.132042635
19.7,0.067185891,0.7103548954,-2.1102753245,-0.0923083506,1.1202517484,-2.0838970298,0.0603864432,0.6716219109,-1.9432765707,0.0668314937,1.0672265574,-1.9894260674,-0.0829520663,0.6926683752,-2.025952059,0.0752580345,1.1762016279,-2.1813082456
19.8,0.0888387184,0.7142075718,-2.1322263127,-0.1198044536,0.9991555438,-2.0816862106,0.0773352575,0.6637106352,-1.9149584064,0.0853858366,0.9418311808,-1.9592800732,-0.1077712867,0.6917892916,-2.0222136084,0.0996204663,1.0576597094,-2.2090778751
19.9,0.1091004998,0.7172881447,-2.1514262969,-0.1418970546,0.9031863772,-2.0678030373,0.0922642294,0.6560327256,-1.8885020004,0.0998973858,0.8450320857,-1.9236927336,-0.130211443,0.6907828267,-2.0179713567,0.1199218533,0.9589805301,-2.2184886125
20,0.1272808533,0.7196638962,-2.1676253932,-0.1586552622,0.8349002995,-2.0518004365,0.1049606475,0.6489332988,-1.8647978804,0.1106828955,0.7768332134,-1.8916374163,-0.1497281235,0.6897369091,-2.0136040582,0.1357771281,0.8867402672,-2.2195555569
20.1,0.1426583065,0.7214128514,-2.1806123756,-0.1716280684,0.7754638846,-2.0344531068,0.1152235642,0.6427822173,-1.8447714772,0.1189065104,0.7186631304,-1.862218252,-0.1657972559,0.688751462,-2.0095262379,0.1483324518,0.8219456241,-2.2147721148
20.2,0.1545015203,0.7226099088,-2.1901897078,-0.1808590299,0.7286855849,-2.0186417802,0.1228495803,0.6379576501,-1.8293603206,0.1246936674,0.6734586077,-1.8380489097,-0.1779084337,0.6879316642,-2.0061602515,0.1574206457,0.7700579525,-2.2074149503
20.3,0.1620942267,0.7233129553,-2.1961423916,-0.1863827892,0.6981199441,-2.007320876,0.1276176027,0.6348259671,-1.8194850463,0.1281316755,0.6441544314,-1.8218416121,-0.18555495,0.6873788998,-2.0039038003,0.1629216849,0.7358451495,-2.2008933359
20.4,0.1647633908,0.7235486351,-2.198201039,-0.1882215053,0.6871796036,-2.0030927935,0.1292720092,0.633718009,-1.8160142412,0.1292720092,0.633718009,-1.8160142412,-0.1882215053,0.6871796036,-2.0030927935,0.1647633908,0.7235486351,-2.198201039
